{
 "actions": [],
 "autoname": "FB.#####",
 "creation": "2021-09-04 15:23:20.408655",
 "doctype": "DocType",
 "editable_grid": 1,
 "engine": "InnoDB",
 "field_order": [
  "issue_number",
  "rating",
  "column_break_2",
  "enter_feedback"
 ],
 "fields": [
  {
   "fieldname": "issue_number",
   "fieldtype": "Data",
   "in_list_view": 1,
   "label": "Issue Number",
   "reqd": 1
  },
  {
   "fieldname": "rating",
   "fieldtype": "Rating",
   "label": "Rating"
  },
  {
   "fieldname": "column_break_2",
   "fieldtype": "Column Break"
  },
  {
   "fieldname": "enter_feedback",
   "fieldtype": "Text",
   "label": "Enter Feedback"
  }
 ],
 "index_web_pages_for_search": 1,
 "links": [],
 "modified": "2021-09-14 19:49:33.274762",
 "modified_by": "Administrator",
 "module": "Shipping Management",
 "name": "Customer Feedback",
 "owner": "Administrator",
 "permissions": [
  {
   "create": 1,
   "delete": 1,
   "email": 1,
   "export": 1,
   "print": 1,
   "read": 1,
   "report": 1,
   "role": "System Manager",
   "share": 1,
   "write": 1
  }
 ],
 "sort_field": "modified",
 "sort_order": "DESC",
 "track_changes": 1
}