{
 "custom_fields": [
  {
   "_assign": null,
   "_comments": null,
   "_liked_by": null,
   "_user_tags": null,
   "allow_in_quick_entry": 0,
   "allow_on_submit": 0,
   "bold": 0,
   "collapsible": 0,
   "collapsible_depends_on": null,
   "columns": 0,
   "creation": "2021-11-06 15:14:06.982271",
   "default": null,
   "depends_on": "eval:!doc.is_domestic_invoice",
   "description": null,
   "docstatus": 0,
   "dt": "Landed Cost Voucher",
   "fetch_from": null,
   "fetch_if_empty": 0,
   "fieldname": "total_igst_amount",
   "fieldtype": "Float",
   "hidden": 1,
   "hide_border": 0,
   "hide_days": 0,
   "hide_seconds": 0,
   "idx": 11,
   "ignore_user_permissions": 0,
   "ignore_xss_filter": 0,
   "in_global_search": 0,
   "in_list_view": 0,
   "in_preview": 0,
   "in_standard_filter": 0,
   "insert_after": "total_custom_duty_amount",
   "is_system_generated": 1,
   "is_virtual": 0,
   "label": "Total IGST Amount",
   "length": 0,
   "mandatory_depends_on": null,
   "modified": "2020-04-18 17:42:02.850474",
   "modified_by": "Administrator",
   "module": null,
   "name": "Landed Cost Voucher-total_igst_amount",
   "no_copy": 0,
   "non_negative": 0,
   "options": null,
   "owner": "Administrator",
   "parent": null,
   "parentfield": null,
   "parenttype": null,
   "permlevel": 0,
   "precision": "",
   "print_hide": 0,
   "print_hide_if_no_value": 0,
   "print_width": null,
   "read_only": 1,
   "read_only_depends_on": null,
   "report_hide": 0,
   "reqd": 0,
   "search_index": 0,
   "show_dashboard": 0,
   "sort_options": 0,
   "translatable": 0,
   "unique": 0,
   "width": null
  },
  {
   "_assign": null,
   "_comments": null,
   "_liked_by": null,
   "_user_tags": null,
   "allow_in_quick_entry": 0,
   "allow_on_submit": 0,
   "bold": 0,
   "collapsible": 0,
   "collapsible_depends_on": null,
   "columns": 0,
   "creation": "2021-11-06 15:14:06.046420",
   "default": null,
   "depends_on": "eval:!doc.is_domestic_invoice",
   "description": null,
   "docstatus": 0,
   "dt": "Landed Cost Voucher",
   "fetch_from": null,
   "fetch_if_empty": 0,
   "fieldname": "total_custom_duty_amount",
   "fieldtype": "Float",
   "hidden": 0,
   "hide_border": 0,
   "hide_days": 0,
   "hide_seconds": 0,
   "idx": 10,
   "ignore_user_permissions": 0,
   "ignore_xss_filter": 0,
   "in_global_search": 0,
   "in_list_view": 0,
   "in_preview": 0,
   "in_standard_filter": 0,
   "insert_after": "items",
   "is_system_generated": 1,
   "is_virtual": 0,
   "label": "Total Custom Duty Amount",
   "length": 0,
   "mandatory_depends_on": null,
   "modified": "2020-04-18 17:42:02.394313",
   "modified_by": "Administrator",
   "module": null,
   "name": "Landed Cost Voucher-total_custom_duty_amount",
   "no_copy": 0,
   "non_negative": 0,
   "options": null,
   "owner": "Administrator",
   "parent": null,
   "parentfield": null,
   "parenttype": null,
   "permlevel": 0,
   "precision": "",
   "print_hide": 0,
   "print_hide_if_no_value": 0,
   "print_width": null,
   "read_only": 1,
   "read_only_depends_on": null,
   "report_hide": 0,
   "reqd": 0,
   "search_index": 0,
   "show_dashboard": 0,
   "sort_options": 0,
   "translatable": 0,
   "unique": 0,
   "width": null
  },
  {
   "_assign": null,
   "_comments": null,
   "_liked_by": null,
   "_user_tags": null,
   "allow_in_quick_entry": 0,
   "allow_on_submit": 0,
   "bold": 0,
   "collapsible": 0,
   "collapsible_depends_on": null,
   "columns": 0,
   "creation": "2021-11-06 15:13:59.951232",
   "default": null,
   "depends_on": null,
   "description": null,
   "docstatus": 0,
   "dt": "Landed Cost Voucher",
   "fetch_from": null,
   "fetch_if_empty": 0,
   "fieldname": "is_domestic_invoice",
   "fieldtype": "Check",
   "hidden": 0,
   "hide_border": 0,
   "hide_days": 0,
   "hide_seconds": 0,
   "idx": 2,
   "ignore_user_permissions": 0,
   "ignore_xss_filter": 0,
   "in_global_search": 0,
   "in_list_view": 0,
   "in_preview": 0,
   "in_standard_filter": 0,
   "insert_after": "company",
   "is_system_generated": 1,
   "is_virtual": 0,
   "label": "is Domestic Invoice",
   "length": 0,
   "mandatory_depends_on": null,
   "modified": "2020-04-18 17:09:45.746881",
   "modified_by": "Administrator",
   "module": null,
   "name": "Landed Cost Voucher-is_domestic_invoice",
   "no_copy": 0,
   "non_negative": 0,
   "options": null,
   "owner": "Administrator",
   "parent": null,
   "parentfield": null,
   "parenttype": null,
   "permlevel": 0,
   "precision": "",
   "print_hide": 0,
   "print_hide_if_no_value": 0,
   "print_width": null,
   "read_only": 0,
   "read_only_depends_on": null,
   "report_hide": 0,
   "reqd": 0,
   "search_index": 0,
   "show_dashboard": 0,
   "sort_options": 0,
   "translatable": 0,
   "unique": 0,
   "width": null
  },
  {
   "_assign": null,
   "_comments": null,
   "_liked_by": null,
   "_user_tags": null,
   "allow_in_quick_entry": 0,
   "allow_on_submit": 0,
   "bold": 0,
   "collapsible": 0,
   "collapsible_depends_on": null,
   "columns": 0,
   "creation": "2021-11-06 15:14:08.123999",
   "default": null,
   "depends_on": "eval:!doc.is_domestic_invoice",
   "description": null,
   "docstatus": 0,
   "dt": "Landed Cost Voucher",
   "fetch_from": null,
   "fetch_if_empty": 0,
   "fieldname": "add_charges",
   "fieldtype": "Button",
   "hidden": 0,
   "hide_border": 0,
   "hide_days": 0,
   "hide_seconds": 0,
   "idx": 12,
   "ignore_user_permissions": 0,
   "ignore_xss_filter": 0,
   "in_global_search": 0,
   "in_list_view": 0,
   "in_preview": 0,
   "in_standard_filter": 0,
   "insert_after": "total_igst_amount",
   "is_system_generated": 1,
   "is_virtual": 0,
   "label": "Add Charges",
   "length": 0,
   "mandatory_depends_on": null,
   "modified": "2020-04-18 17:05:41.091076",
   "modified_by": "Administrator",
   "module": null,
   "name": "Landed Cost Voucher-add_charges",
   "no_copy": 0,
   "non_negative": 0,
   "options": null,
   "owner": "Administrator",
   "parent": null,
   "parentfield": null,
   "parenttype": null,
   "permlevel": 0,
   "precision": "",
   "print_hide": 0,
   "print_hide_if_no_value": 0,
   "print_width": null,
   "read_only": 0,
   "read_only_depends_on": null,
   "report_hide": 0,
   "reqd": 0,
   "search_index": 0,
   "show_dashboard": 0,
   "sort_options": 0,
   "translatable": 0,
   "unique": 0,
   "width": null
  }
 ],
 "custom_perms": [],
 "doctype": "Landed Cost Voucher",
 "links": [],
 "property_setters": [
  {
   "_assign": null,
   "_comments": null,
   "_liked_by": null,
   "_user_tags": null,
   "creation": "2024-03-28 10:53:44.496204",
   "default_value": null,
   "doc_type": "Landed Cost Voucher",
   "docstatus": 0,
   "doctype_or_field": "DocType",
   "field_name": null,
   "idx": 0,
   "is_system_generated": 1,
   "modified": "2024-03-28 10:53:44.496204",
   "modified_by": "Administrator",
   "module": null,
   "name": "Landed Cost Voucher-main-track_changes",
   "owner": "Administrator",
   "parent": null,
   "parentfield": null,
   "parenttype": null,
   "property": "track_changes",
   "property_type": "Check",
   "row_name": null,
   "value": "1"
  },
  {
   "_assign": null,
   "_comments": null,
   "_liked_by": null,
   "_user_tags": null,
   "creation": "2021-11-06 15:15:08.705707",
   "default_value": null,
   "doc_type": "Landed Cost Voucher",
   "docstatus": 0,
   "doctype_or_field": "DocField",
   "field_name": "naming_series",
   "idx": 0,
   "is_system_generated": 1,
   "modified": "2021-04-01 18:54:06.049007",
   "modified_by": "Administrator",
   "module": null,
   "name": "Landed Cost Voucher-naming_series-options",
   "owner": "Administrator",
   "parent": null,
   "parentfield": null,
   "parenttype": null,
   "property": "options",
   "property_type": "Text",
   "row_name": null,
   "value": "LV-"
  },
  {
   "_assign": null,
   "_comments": null,
   "_liked_by": null,
   "_user_tags": null,
   "creation": "2021-11-06 15:15:08.689382",
   "default_value": null,
   "doc_type": "Landed Cost Voucher",
   "docstatus": 0,
   "doctype_or_field": "DocField",
   "field_name": "naming_series",
   "idx": 0,
   "is_system_generated": 1,
   "modified": "2021-04-01 18:54:05.988987",
   "modified_by": "Administrator",
   "module": null,
   "name": "Landed Cost Voucher-naming_series-default",
   "owner": "Administrator",
   "parent": null,
   "parentfield": null,
   "parenttype": null,
   "property": "default",
   "property_type": "Text",
   "row_name": null,
   "value": "LV-"
  }
 ],
 "sync_on_migrate": 1
}