{
 "custom_fields": [
  {
   "_assign": null,
   "_comments": null,
   "_liked_by": null,
   "_user_tags": null,
   "allow_in_quick_entry": 0,
   "allow_on_submit": 0,
   "bold": 0,
   "collapsible": 0,
   "collapsible_depends_on": null,
   "columns": 0,
   "creation": "2024-04-02 13:55:07.803898",
   "default": null,
   "depends_on": null,
   "description": null,
   "docstatus": 0,
   "dt": "Purchase Order Item",
   "fetch_from": "item_code.is_ineligible_for_itc",
   "fetch_if_empty": 1,
   "fieldname": "is_ineligible_for_itc",
   "fieldtype": "Check",
   "hidden": 0,
   "hide_border": 0,
   "hide_days": 0,
   "hide_seconds": 0,
   "idx": 0,
   "ignore_user_permissions": 0,
   "ignore_xss_filter": 0,
   "in_global_search": 0,
   "in_list_view": 0,
   "in_preview": 0,
   "in_standard_filter": 0,
   "insert_after": "gst_hsn_code",
   "is_system_generated": 1,
   "is_virtual": 0,
   "label": "Is Ineligible for Input Tax Credit",
   "length": 0,
   "mandatory_depends_on": null,
   "modified": "2024-04-02 13:55:07.803898",
   "modified_by": "Administrator",
   "module": null,
   "name": "Purchase Order Item-is_ineligible_for_itc",
   "no_copy": 0,
   "non_negative": 0,
   "options": null,
   "owner": "Administrator",
   "parent": null,
   "parentfield": null,
   "parenttype": null,
   "permlevel": 0,
   "precision": "",
   "print_hide": 1,
   "print_hide_if_no_value": 0,
   "print_width": null,
   "read_only": 0,
   "read_only_depends_on": null,
   "report_hide": 0,
   "reqd": 0,
   "search_index": 0,
   "show_dashboard": 0,
   "sort_options": 0,
   "translatable": 0,
   "unique": 0,
   "width": null
  },
  {
   "_assign": null,
   "_comments": null,
   "_liked_by": null,
   "_user_tags": null,
   "allow_in_quick_entry": 0,
   "allow_on_submit": 0,
   "bold": 0,
   "collapsible": 0,
   "collapsible_depends_on": null,
   "columns": 0,
   "creation": "2024-04-02 13:55:07.132693",
   "default": null,
   "depends_on": null,
   "description": null,
   "docstatus": 0,
   "dt": "Purchase Order Item",
   "fetch_from": null,
   "fetch_if_empty": 0,
   "fieldname": "cess_non_advol_amount",
   "fieldtype": "Currency",
   "hidden": 0,
   "hide_border": 0,
   "hide_days": 0,
   "hide_seconds": 0,
   "idx": 0,
   "ignore_user_permissions": 0,
   "ignore_xss_filter": 0,
   "in_global_search": 0,
   "in_list_view": 0,
   "in_preview": 0,
   "in_standard_filter": 0,
   "insert_after": "cess_amount",
   "is_system_generated": 1,
   "is_virtual": 0,
   "label": "CESS Non Advol Amount",
   "length": 0,
   "mandatory_depends_on": null,
   "modified": "2024-04-02 13:55:07.132693",
   "modified_by": "Administrator",
   "module": null,
   "name": "Purchase Order Item-cess_non_advol_amount",
   "no_copy": 1,
   "non_negative": 0,
   "options": "Company:company:default_currency",
   "owner": "Administrator",
   "parent": null,
   "parentfield": null,
   "parenttype": null,
   "permlevel": 0,
   "precision": "",
   "print_hide": 0,
   "print_hide_if_no_value": 0,
   "print_width": null,
   "read_only": 1,
   "read_only_depends_on": null,
   "report_hide": 0,
   "reqd": 0,
   "search_index": 0,
   "show_dashboard": 0,
   "sort_options": 0,
   "translatable": 0,
   "unique": 0,
   "width": null
  },
  {
   "_assign": null,
   "_comments": null,
   "_liked_by": null,
   "_user_tags": null,
   "allow_in_quick_entry": 0,
   "allow_on_submit": 0,
   "bold": 0,
   "collapsible": 0,
   "collapsible_depends_on": null,
   "columns": 0,
   "creation": "2024-04-02 13:55:07.125986",
   "default": null,
   "depends_on": null,
   "description": null,
   "docstatus": 0,
   "dt": "Purchase Order Item",
   "fetch_from": null,
   "fetch_if_empty": 0,
   "fieldname": "cess_amount",
   "fieldtype": "Currency",
   "hidden": 0,
   "hide_border": 0,
   "hide_days": 0,
   "hide_seconds": 0,
   "idx": 0,
   "ignore_user_permissions": 0,
   "ignore_xss_filter": 0,
   "in_global_search": 0,
   "in_list_view": 0,
   "in_preview": 0,
   "in_standard_filter": 0,
   "insert_after": "sgst_amount",
   "is_system_generated": 1,
   "is_virtual": 0,
   "label": "CESS Amount",
   "length": 0,
   "mandatory_depends_on": null,
   "modified": "2024-04-02 13:55:07.125986",
   "modified_by": "Administrator",
   "module": null,
   "name": "Purchase Order Item-cess_amount",
   "no_copy": 1,
   "non_negative": 0,
   "options": "Company:company:default_currency",
   "owner": "Administrator",
   "parent": null,
   "parentfield": null,
   "parenttype": null,
   "permlevel": 0,
   "precision": "",
   "print_hide": 0,
   "print_hide_if_no_value": 0,
   "print_width": null,
   "read_only": 1,
   "read_only_depends_on": null,
   "report_hide": 0,
   "reqd": 0,
   "search_index": 0,
   "show_dashboard": 0,
   "sort_options": 0,
   "translatable": 0,
   "unique": 0,
   "width": null
  },
  {
   "_assign": null,
   "_comments": null,
   "_liked_by": null,
   "_user_tags": null,
   "allow_in_quick_entry": 0,
   "allow_on_submit": 0,
   "bold": 0,
   "collapsible": 0,
   "collapsible_depends_on": null,
   "columns": 0,
   "creation": "2024-04-02 13:55:07.118310",
   "default": null,
   "depends_on": null,
   "description": null,
   "docstatus": 0,
   "dt": "Purchase Order Item",
   "fetch_from": null,
   "fetch_if_empty": 0,
   "fieldname": "sgst_amount",
   "fieldtype": "Currency",
   "hidden": 0,
   "hide_border": 0,
   "hide_days": 0,
   "hide_seconds": 0,
   "idx": 0,
   "ignore_user_permissions": 0,
   "ignore_xss_filter": 0,
   "in_global_search": 0,
   "in_list_view": 0,
   "in_preview": 0,
   "in_standard_filter": 0,
   "insert_after": "cgst_amount",
   "is_system_generated": 1,
   "is_virtual": 0,
   "label": "SGST Amount",
   "length": 0,
   "mandatory_depends_on": null,
   "modified": "2024-04-02 13:55:07.118310",
   "modified_by": "Administrator",
   "module": null,
   "name": "Purchase Order Item-sgst_amount",
   "no_copy": 1,
   "non_negative": 0,
   "options": "Company:company:default_currency",
   "owner": "Administrator",
   "parent": null,
   "parentfield": null,
   "parenttype": null,
   "permlevel": 0,
   "precision": "",
   "print_hide": 0,
   "print_hide_if_no_value": 0,
   "print_width": null,
   "read_only": 1,
   "read_only_depends_on": null,
   "report_hide": 0,
   "reqd": 0,
   "search_index": 0,
   "show_dashboard": 0,
   "sort_options": 0,
   "translatable": 0,
   "unique": 0,
   "width": null
  },
  {
   "_assign": null,
   "_comments": null,
   "_liked_by": null,
   "_user_tags": null,
   "allow_in_quick_entry": 0,
   "allow_on_submit": 0,
   "bold": 0,
   "collapsible": 0,
   "collapsible_depends_on": null,
   "columns": 0,
   "creation": "2024-04-02 13:55:07.111254",
   "default": null,
   "depends_on": null,
   "description": null,
   "docstatus": 0,
   "dt": "Purchase Order Item",
   "fetch_from": null,
   "fetch_if_empty": 0,
   "fieldname": "cgst_amount",
   "fieldtype": "Currency",
   "hidden": 0,
   "hide_border": 0,
   "hide_days": 0,
   "hide_seconds": 0,
   "idx": 0,
   "ignore_user_permissions": 0,
   "ignore_xss_filter": 0,
   "in_global_search": 0,
   "in_list_view": 0,
   "in_preview": 0,
   "in_standard_filter": 0,
   "insert_after": "igst_amount",
   "is_system_generated": 1,
   "is_virtual": 0,
   "label": "CGST Amount",
   "length": 0,
   "mandatory_depends_on": null,
   "modified": "2024-04-02 13:55:07.111254",
   "modified_by": "Administrator",
   "module": null,
   "name": "Purchase Order Item-cgst_amount",
   "no_copy": 1,
   "non_negative": 0,
   "options": "Company:company:default_currency",
   "owner": "Administrator",
   "parent": null,
   "parentfield": null,
   "parenttype": null,
   "permlevel": 0,
   "precision": "",
   "print_hide": 0,
   "print_hide_if_no_value": 0,
   "print_width": null,
   "read_only": 1,
   "read_only_depends_on": null,
   "report_hide": 0,
   "reqd": 0,
   "search_index": 0,
   "show_dashboard": 0,
   "sort_options": 0,
   "translatable": 0,
   "unique": 0,
   "width": null
  },
  {
   "_assign": null,
   "_comments": null,
   "_liked_by": null,
   "_user_tags": null,
   "allow_in_quick_entry": 0,
   "allow_on_submit": 0,
   "bold": 0,
   "collapsible": 0,
   "collapsible_depends_on": null,
   "columns": 0,
   "creation": "2024-04-02 13:55:07.104586",
   "default": null,
   "depends_on": null,
   "description": null,
   "docstatus": 0,
   "dt": "Purchase Order Item",
   "fetch_from": null,
   "fetch_if_empty": 0,
   "fieldname": "igst_amount",
   "fieldtype": "Currency",
   "hidden": 0,
   "hide_border": 0,
   "hide_days": 0,
   "hide_seconds": 0,
   "idx": 0,
   "ignore_user_permissions": 0,
   "ignore_xss_filter": 0,
   "in_global_search": 0,
   "in_list_view": 0,
   "in_preview": 0,
   "in_standard_filter": 0,
   "insert_after": "cb_gst_details",
   "is_system_generated": 1,
   "is_virtual": 0,
   "label": "IGST Amount",
   "length": 0,
   "mandatory_depends_on": null,
   "modified": "2024-04-02 13:55:07.104586",
   "modified_by": "Administrator",
   "module": null,
   "name": "Purchase Order Item-igst_amount",
   "no_copy": 1,
   "non_negative": 0,
   "options": "Company:company:default_currency",
   "owner": "Administrator",
   "parent": null,
   "parentfield": null,
   "parenttype": null,
   "permlevel": 0,
   "precision": "",
   "print_hide": 0,
   "print_hide_if_no_value": 0,
   "print_width": null,
   "read_only": 1,
   "read_only_depends_on": null,
   "report_hide": 0,
   "reqd": 0,
   "search_index": 0,
   "show_dashboard": 0,
   "sort_options": 0,
   "translatable": 0,
   "unique": 0,
   "width": null
  },
  {
   "_assign": null,
   "_comments": null,
   "_liked_by": null,
   "_user_tags": null,
   "allow_in_quick_entry": 0,
   "allow_on_submit": 0,
   "bold": 0,
   "collapsible": 0,
   "collapsible_depends_on": null,
   "columns": 0,
   "creation": "2024-04-02 13:55:07.097755",
   "default": null,
   "depends_on": null,
   "description": null,
   "docstatus": 0,
   "dt": "Purchase Order Item",
   "fetch_from": null,
   "fetch_if_empty": 0,
   "fieldname": "cb_gst_details",
   "fieldtype": "Column Break",
   "hidden": 0,
   "hide_border": 0,
   "hide_days": 0,
   "hide_seconds": 0,
   "idx": 0,
   "ignore_user_permissions": 0,
   "ignore_xss_filter": 0,
   "in_global_search": 0,
   "in_list_view": 0,
   "in_preview": 0,
   "in_standard_filter": 0,
   "insert_after": "cess_non_advol_rate",
   "is_system_generated": 1,
   "is_virtual": 0,
   "label": null,
   "length": 0,
   "mandatory_depends_on": null,
   "modified": "2024-04-02 13:55:07.097755",
   "modified_by": "Administrator",
   "module": null,
   "name": "Purchase Order Item-cb_gst_details",
   "no_copy": 0,
   "non_negative": 0,
   "options": null,
   "owner": "Administrator",
   "parent": null,
   "parentfield": null,
   "parenttype": null,
   "permlevel": 0,
   "precision": "",
   "print_hide": 0,
   "print_hide_if_no_value": 0,
   "print_width": null,
   "read_only": 0,
   "read_only_depends_on": null,
   "report_hide": 0,
   "reqd": 0,
   "search_index": 0,
   "show_dashboard": 0,
   "sort_options": 0,
   "translatable": 0,
   "unique": 0,
   "width": null
  },
  {
   "_assign": null,
   "_comments": null,
   "_liked_by": null,
   "_user_tags": null,
   "allow_in_quick_entry": 0,
   "allow_on_submit": 0,
   "bold": 0,
   "collapsible": 0,
   "collapsible_depends_on": null,
   "columns": 0,
   "creation": "2024-04-02 13:55:07.090883",
   "default": null,
   "depends_on": null,
   "description": null,
   "docstatus": 0,
   "dt": "Purchase Order Item",
   "fetch_from": null,
   "fetch_if_empty": 0,
   "fieldname": "cess_non_advol_rate",
   "fieldtype": "Float",
   "hidden": 0,
   "hide_border": 0,
   "hide_days": 0,
   "hide_seconds": 0,
   "idx": 0,
   "ignore_user_permissions": 0,
   "ignore_xss_filter": 0,
   "in_global_search": 0,
   "in_list_view": 0,
   "in_preview": 0,
   "in_standard_filter": 0,
   "insert_after": "cess_rate",
   "is_system_generated": 1,
   "is_virtual": 0,
   "label": "CESS Non Advol Rate",
   "length": 0,
   "mandatory_depends_on": null,
   "modified": "2024-04-02 13:55:07.090883",
   "modified_by": "Administrator",
   "module": null,
   "name": "Purchase Order Item-cess_non_advol_rate",
   "no_copy": 1,
   "non_negative": 0,
   "options": null,
   "owner": "Administrator",
   "parent": null,
   "parentfield": null,
   "parenttype": null,
   "permlevel": 0,
   "precision": "",
   "print_hide": 0,
   "print_hide_if_no_value": 0,
   "print_width": null,
   "read_only": 1,
   "read_only_depends_on": null,
   "report_hide": 0,
   "reqd": 0,
   "search_index": 0,
   "show_dashboard": 0,
   "sort_options": 0,
   "translatable": 0,
   "unique": 0,
   "width": null
  },
  {
   "_assign": null,
   "_comments": null,
   "_liked_by": null,
   "_user_tags": null,
   "allow_in_quick_entry": 0,
   "allow_on_submit": 0,
   "bold": 0,
   "collapsible": 0,
   "collapsible_depends_on": null,
   "columns": 0,
   "creation": "2024-04-02 13:55:07.084080",
   "default": null,
   "depends_on": null,
   "description": null,
   "docstatus": 0,
   "dt": "Purchase Order Item",
   "fetch_from": null,
   "fetch_if_empty": 0,
   "fieldname": "cess_rate",
   "fieldtype": "Float",
   "hidden": 0,
   "hide_border": 0,
   "hide_days": 0,
   "hide_seconds": 0,
   "idx": 0,
   "ignore_user_permissions": 0,
   "ignore_xss_filter": 0,
   "in_global_search": 0,
   "in_list_view": 0,
   "in_preview": 0,
   "in_standard_filter": 0,
   "insert_after": "sgst_rate",
   "is_system_generated": 1,
   "is_virtual": 0,
   "label": "CESS Rate",
   "length": 0,
   "mandatory_depends_on": null,
   "modified": "2024-04-02 13:55:07.084080",
   "modified_by": "Administrator",
   "module": null,
   "name": "Purchase Order Item-cess_rate",
   "no_copy": 1,
   "non_negative": 0,
   "options": null,
   "owner": "Administrator",
   "parent": null,
   "parentfield": null,
   "parenttype": null,
   "permlevel": 0,
   "precision": "",
   "print_hide": 0,
   "print_hide_if_no_value": 0,
   "print_width": null,
   "read_only": 1,
   "read_only_depends_on": null,
   "report_hide": 0,
   "reqd": 0,
   "search_index": 0,
   "show_dashboard": 0,
   "sort_options": 0,
   "translatable": 0,
   "unique": 0,
   "width": null
  },
  {
   "_assign": null,
   "_comments": null,
   "_liked_by": null,
   "_user_tags": null,
   "allow_in_quick_entry": 0,
   "allow_on_submit": 0,
   "bold": 0,
   "collapsible": 0,
   "collapsible_depends_on": null,
   "columns": 0,
   "creation": "2024-04-02 13:55:07.077152",
   "default": null,
   "depends_on": null,
   "description": null,
   "docstatus": 0,
   "dt": "Purchase Order Item",
   "fetch_from": null,
   "fetch_if_empty": 0,
   "fieldname": "sgst_rate",
   "fieldtype": "Float",
   "hidden": 0,
   "hide_border": 0,
   "hide_days": 0,
   "hide_seconds": 0,
   "idx": 0,
   "ignore_user_permissions": 0,
   "ignore_xss_filter": 0,
   "in_global_search": 0,
   "in_list_view": 0,
   "in_preview": 0,
   "in_standard_filter": 0,
   "insert_after": "cgst_rate",
   "is_system_generated": 1,
   "is_virtual": 0,
   "label": "SGST Rate",
   "length": 0,
   "mandatory_depends_on": null,
   "modified": "2024-04-02 13:55:07.077152",
   "modified_by": "Administrator",
   "module": null,
   "name": "Purchase Order Item-sgst_rate",
   "no_copy": 1,
   "non_negative": 0,
   "options": null,
   "owner": "Administrator",
   "parent": null,
   "parentfield": null,
   "parenttype": null,
   "permlevel": 0,
   "precision": "",
   "print_hide": 0,
   "print_hide_if_no_value": 0,
   "print_width": null,
   "read_only": 1,
   "read_only_depends_on": null,
   "report_hide": 0,
   "reqd": 0,
   "search_index": 0,
   "show_dashboard": 0,
   "sort_options": 0,
   "translatable": 0,
   "unique": 0,
   "width": null
  },
  {
   "_assign": null,
   "_comments": null,
   "_liked_by": null,
   "_user_tags": null,
   "allow_in_quick_entry": 0,
   "allow_on_submit": 0,
   "bold": 0,
   "collapsible": 0,
   "collapsible_depends_on": null,
   "columns": 0,
   "creation": "2024-04-02 13:55:07.070036",
   "default": null,
   "depends_on": null,
   "description": null,
   "docstatus": 0,
   "dt": "Purchase Order Item",
   "fetch_from": null,
   "fetch_if_empty": 0,
   "fieldname": "cgst_rate",
   "fieldtype": "Float",
   "hidden": 0,
   "hide_border": 0,
   "hide_days": 0,
   "hide_seconds": 0,
   "idx": 0,
   "ignore_user_permissions": 0,
   "ignore_xss_filter": 0,
   "in_global_search": 0,
   "in_list_view": 0,
   "in_preview": 0,
   "in_standard_filter": 0,
   "insert_after": "igst_rate",
   "is_system_generated": 1,
   "is_virtual": 0,
   "label": "CGST Rate",
   "length": 0,
   "mandatory_depends_on": null,
   "modified": "2024-04-02 13:55:07.070036",
   "modified_by": "Administrator",
   "module": null,
   "name": "Purchase Order Item-cgst_rate",
   "no_copy": 1,
   "non_negative": 0,
   "options": null,
   "owner": "Administrator",
   "parent": null,
   "parentfield": null,
   "parenttype": null,
   "permlevel": 0,
   "precision": "",
   "print_hide": 0,
   "print_hide_if_no_value": 0,
   "print_width": null,
   "read_only": 1,
   "read_only_depends_on": null,
   "report_hide": 0,
   "reqd": 0,
   "search_index": 0,
   "show_dashboard": 0,
   "sort_options": 0,
   "translatable": 0,
   "unique": 0,
   "width": null
  },
  {
   "_assign": null,
   "_comments": null,
   "_liked_by": null,
   "_user_tags": null,
   "allow_in_quick_entry": 0,
   "allow_on_submit": 0,
   "bold": 0,
   "collapsible": 0,
   "collapsible_depends_on": null,
   "columns": 0,
   "creation": "2024-04-02 13:55:07.062951",
   "default": null,
   "depends_on": null,
   "description": null,
   "docstatus": 0,
   "dt": "Purchase Order Item",
   "fetch_from": null,
   "fetch_if_empty": 0,
   "fieldname": "igst_rate",
   "fieldtype": "Float",
   "hidden": 0,
   "hide_border": 0,
   "hide_days": 0,
   "hide_seconds": 0,
   "idx": 0,
   "ignore_user_permissions": 0,
   "ignore_xss_filter": 0,
   "in_global_search": 0,
   "in_list_view": 0,
   "in_preview": 0,
   "in_standard_filter": 0,
   "insert_after": "gst_details_section",
   "is_system_generated": 1,
   "is_virtual": 0,
   "label": "IGST Rate",
   "length": 0,
   "mandatory_depends_on": null,
   "modified": "2024-04-02 13:55:07.062951",
   "modified_by": "Administrator",
   "module": null,
   "name": "Purchase Order Item-igst_rate",
   "no_copy": 1,
   "non_negative": 0,
   "options": null,
   "owner": "Administrator",
   "parent": null,
   "parentfield": null,
   "parenttype": null,
   "permlevel": 0,
   "precision": "",
   "print_hide": 0,
   "print_hide_if_no_value": 0,
   "print_width": null,
   "read_only": 1,
   "read_only_depends_on": null,
   "report_hide": 0,
   "reqd": 0,
   "search_index": 0,
   "show_dashboard": 0,
   "sort_options": 0,
   "translatable": 0,
   "unique": 0,
   "width": null
  },
  {
   "_assign": null,
   "_comments": null,
   "_liked_by": null,
   "_user_tags": null,
   "allow_in_quick_entry": 0,
   "allow_on_submit": 0,
   "bold": 0,
   "collapsible": 1,
   "collapsible_depends_on": null,
   "columns": 0,
   "creation": "2024-04-02 13:55:07.055906",
   "default": null,
   "depends_on": null,
   "description": null,
   "docstatus": 0,
   "dt": "Purchase Order Item",
   "fetch_from": null,
   "fetch_if_empty": 0,
   "fieldname": "gst_details_section",
   "fieldtype": "Section Break",
   "hidden": 0,
   "hide_border": 0,
   "hide_days": 0,
   "hide_seconds": 0,
   "idx": 0,
   "ignore_user_permissions": 0,
   "ignore_xss_filter": 0,
   "in_global_search": 0,
   "in_list_view": 0,
   "in_preview": 0,
   "in_standard_filter": 0,
   "insert_after": "taxable_value",
   "is_system_generated": 1,
   "is_virtual": 0,
   "label": "GST Details",
   "length": 0,
   "mandatory_depends_on": null,
   "modified": "2024-04-02 13:55:07.055906",
   "modified_by": "Administrator",
   "module": null,
   "name": "Purchase Order Item-gst_details_section",
   "no_copy": 0,
   "non_negative": 0,
   "options": null,
   "owner": "Administrator",
   "parent": null,
   "parentfield": null,
   "parenttype": null,
   "permlevel": 0,
   "precision": "",
   "print_hide": 0,
   "print_hide_if_no_value": 0,
   "print_width": null,
   "read_only": 0,
   "read_only_depends_on": null,
   "report_hide": 0,
   "reqd": 0,
   "search_index": 0,
   "show_dashboard": 0,
   "sort_options": 0,
   "translatable": 0,
   "unique": 0,
   "width": null
  },
  {
   "_assign": null,
   "_comments": null,
   "_liked_by": null,
   "_user_tags": null,
   "allow_in_quick_entry": 0,
   "allow_on_submit": 0,
   "bold": 0,
   "collapsible": 0,
   "collapsible_depends_on": null,
   "columns": 0,
   "creation": "2024-04-02 13:55:07.048983",
   "default": null,
   "depends_on": null,
   "description": null,
   "docstatus": 0,
   "dt": "Purchase Order Item",
   "fetch_from": null,
   "fetch_if_empty": 0,
   "fieldname": "taxable_value",
   "fieldtype": "Currency",
   "hidden": 0,
   "hide_border": 0,
   "hide_days": 0,
   "hide_seconds": 0,
   "idx": 0,
   "ignore_user_permissions": 0,
   "ignore_xss_filter": 0,
   "in_global_search": 0,
   "in_list_view": 0,
   "in_preview": 0,
   "in_standard_filter": 0,
   "insert_after": "base_net_amount",
   "is_system_generated": 1,
   "is_virtual": 0,
   "label": "Taxable Value",
   "length": 0,
   "mandatory_depends_on": null,
   "modified": "2024-04-02 13:55:07.048983",
   "modified_by": "Administrator",
   "module": null,
   "name": "Purchase Order Item-taxable_value",
   "no_copy": 1,
   "non_negative": 0,
   "options": "Company:company:default_currency",
   "owner": "Administrator",
   "parent": null,
   "parentfield": null,
   "parenttype": null,
   "permlevel": 0,
   "precision": "",
   "print_hide": 1,
   "print_hide_if_no_value": 0,
   "print_width": null,
   "read_only": 1,
   "read_only_depends_on": null,
   "report_hide": 0,
   "reqd": 0,
   "search_index": 0,
   "show_dashboard": 0,
   "sort_options": 0,
   "translatable": 0,
   "unique": 0,
   "width": null
  },
  {
   "_assign": null,
   "_comments": null,
   "_liked_by": null,
   "_user_tags": null,
   "allow_in_quick_entry": 0,
   "allow_on_submit": 0,
   "bold": 0,
   "collapsible": 0,
   "collapsible_depends_on": null,
   "columns": 0,
   "creation": "2024-04-02 13:55:07.041771",
   "default": null,
   "depends_on": null,
   "description": null,
   "docstatus": 0,
   "dt": "Purchase Order Item",
   "fetch_from": "item_tax_template.gst_treatment",
   "fetch_if_empty": 1,
   "fieldname": "gst_treatment",
   "fieldtype": "Autocomplete",
   "hidden": 0,
   "hide_border": 0,
   "hide_days": 0,
   "hide_seconds": 0,
   "idx": 0,
   "ignore_user_permissions": 0,
   "ignore_xss_filter": 0,
   "in_global_search": 0,
   "in_list_view": 0,
   "in_preview": 0,
   "in_standard_filter": 0,
   "insert_after": "item_tax_template",
   "is_system_generated": 1,
   "is_virtual": 0,
   "label": "GST Treatment",
   "length": 0,
   "mandatory_depends_on": null,
   "modified": "2024-04-02 13:55:07.041771",
   "modified_by": "Administrator",
   "module": null,
   "name": "Purchase Order Item-gst_treatment",
   "no_copy": 1,
   "non_negative": 0,
   "options": "Taxable\nZero-Rated\nNil-Rated\nExempted\nNon-GST",
   "owner": "Administrator",
   "parent": null,
   "parentfield": null,
   "parenttype": null,
   "permlevel": 0,
   "precision": "",
   "print_hide": 1,
   "print_hide_if_no_value": 0,
   "print_width": null,
   "read_only": 1,
   "read_only_depends_on": null,
   "report_hide": 0,
   "reqd": 0,
   "search_index": 0,
   "show_dashboard": 0,
   "sort_options": 0,
   "translatable": 0,
   "unique": 0,
   "width": null
  },
  {
   "_assign": null,
   "_comments": null,
   "_liked_by": null,
   "_user_tags": null,
   "allow_in_quick_entry": 0,
   "allow_on_submit": 1,
   "bold": 0,
   "collapsible": 0,
   "collapsible_depends_on": null,
   "columns": 0,
   "creation": "2024-04-02 13:55:07.034450",
   "default": null,
   "depends_on": null,
   "description": null,
   "docstatus": 0,
   "dt": "Purchase Order Item",
   "fetch_from": "item_code.gst_hsn_code",
   "fetch_if_empty": 1,
   "fieldname": "gst_hsn_code",
   "fieldtype": "Data",
   "hidden": 0,
   "hide_border": 0,
   "hide_days": 0,
   "hide_seconds": 0,
   "idx": 0,
   "ignore_user_permissions": 0,
   "ignore_xss_filter": 0,
   "in_global_search": 0,
   "in_list_view": 0,
   "in_preview": 0,
   "in_standard_filter": 0,
   "insert_after": "description",
   "is_system_generated": 1,
   "is_virtual": 0,
   "label": "HSN/SAC",
   "length": 0,
   "mandatory_depends_on": null,
   "modified": "2024-04-02 13:55:07.034450",
   "modified_by": "Administrator",
   "module": null,
   "name": "Purchase Order Item-gst_hsn_code",
   "no_copy": 0,
   "non_negative": 0,
   "options": null,
   "owner": "Administrator",
   "parent": null,
   "parentfield": null,
   "parenttype": null,
   "permlevel": 0,
   "precision": "",
   "print_hide": 1,
   "print_hide_if_no_value": 0,
   "print_width": null,
   "read_only": 0,
   "read_only_depends_on": null,
   "report_hide": 0,
   "reqd": 0,
   "search_index": 0,
   "show_dashboard": 0,
   "sort_options": 0,
   "translatable": 0,
   "unique": 0,
   "width": null
  },
  {
   "_assign": null,
   "_comments": null,
   "_liked_by": null,
   "_user_tags": null,
   "allow_in_quick_entry": 0,
   "allow_on_submit": 0,
   "bold": 0,
   "collapsible": 0,
   "collapsible_depends_on": null,
   "columns": 0,
   "creation": "2022-04-01 12:18:21.243216",
   "default": null,
   "depends_on": null,
   "description": null,
   "docstatus": 0,
   "dt": "Purchase Order Item",
   "fetch_from": null,
   "fetch_if_empty": 0,
   "fieldname": "division",
   "fieldtype": "Link",
   "hidden": 0,
   "hide_border": 0,
   "hide_days": 0,
   "hide_seconds": 0,
   "idx": 90,
   "ignore_user_permissions": 0,
   "ignore_xss_filter": 0,
   "in_global_search": 0,
   "in_list_view": 0,
   "in_preview": 0,
   "in_standard_filter": 0,
   "insert_after": "dimension_col_break",
   "is_system_generated": 1,
   "is_virtual": 0,
   "label": "Division",
   "length": 0,
   "mandatory_depends_on": null,
   "modified": "2022-11-22 15:38:02.397841",
   "modified_by": "sagar@trueview.co.in",
   "module": null,
   "name": "Purchase Order Item-division",
   "no_copy": 0,
   "non_negative": 0,
   "options": "Division",
   "owner": "Administrator",
   "parent": null,
   "parentfield": null,
   "parenttype": null,
   "permlevel": 0,
   "precision": "",
   "print_hide": 0,
   "print_hide_if_no_value": 0,
   "print_width": null,
   "read_only": 0,
   "read_only_depends_on": null,
   "report_hide": 0,
   "reqd": 0,
   "search_index": 0,
   "show_dashboard": 0,
   "sort_options": 0,
   "translatable": 0,
   "unique": 0,
   "width": null
  },
  {
   "_assign": null,
   "_comments": null,
   "_liked_by": null,
   "_user_tags": null,
   "allow_in_quick_entry": 0,
   "allow_on_submit": 0,
   "bold": 0,
   "collapsible": 0,
   "collapsible_depends_on": null,
   "columns": 0,
   "creation": "2022-04-01 12:16:52.272813",
   "default": null,
   "depends_on": null,
   "description": null,
   "docstatus": 0,
   "dt": "Purchase Order Item",
   "fetch_from": null,
   "fetch_if_empty": 0,
   "fieldname": "department",
   "fieldtype": "Link",
   "hidden": 0,
   "hide_border": 0,
   "hide_days": 0,
   "hide_seconds": 0,
   "idx": 87,
   "ignore_user_permissions": 0,
   "ignore_xss_filter": 0,
   "in_global_search": 0,
   "in_list_view": 0,
   "in_preview": 0,
   "in_standard_filter": 0,
   "insert_after": "accounting_dimensions_section",
   "is_system_generated": 1,
   "is_virtual": 0,
   "label": "Department",
   "length": 0,
   "mandatory_depends_on": null,
   "modified": "2022-11-22 15:37:58.580081",
   "modified_by": "sagar@trueview.co.in",
   "module": null,
   "name": "Purchase Order Item-department",
   "no_copy": 0,
   "non_negative": 0,
   "options": "Department",
   "owner": "Administrator",
   "parent": null,
   "parentfield": null,
   "parenttype": null,
   "permlevel": 0,
   "precision": "",
   "print_hide": 0,
   "print_hide_if_no_value": 0,
   "print_width": null,
   "read_only": 0,
   "read_only_depends_on": null,
   "report_hide": 0,
   "reqd": 0,
   "search_index": 0,
   "show_dashboard": 0,
   "sort_options": 0,
   "translatable": 0,
   "unique": 0,
   "width": null
  }
 ],
 "custom_perms": [],
 "doctype": "Purchase Order Item",
 "links": [],
 "property_setters": [
  {
   "_assign": null,
   "_comments": null,
   "_liked_by": null,
   "_user_tags": null,
   "creation": "2021-11-06 15:15:12.140472",
   "default_value": null,
   "doc_type": "Purchase Order Item",
   "docstatus": 0,
   "doctype_or_field": "DocField",
   "field_name": "billed_amt",
   "idx": 0,
   "is_system_generated": 1,
   "modified": "2021-10-01 19:03:42.967147",
   "modified_by": "Administrator",
   "module": null,
   "name": "Purchase Order Item-billed_amt-precision",
   "owner": "Administrator",
   "parent": null,
   "parentfield": null,
   "parenttype": null,
   "property": "precision",
   "property_type": "Select",
   "row_name": null,
   "value": "4"
  },
  {
   "_assign": null,
   "_comments": null,
   "_liked_by": null,
   "_user_tags": null,
   "creation": "2021-11-06 15:15:12.128186",
   "default_value": null,
   "doc_type": "Purchase Order Item",
   "docstatus": 0,
   "doctype_or_field": "DocField",
   "field_name": "blanket_order_rate",
   "idx": 0,
   "is_system_generated": 1,
   "modified": "2021-10-01 19:03:42.934220",
   "modified_by": "Administrator",
   "module": null,
   "name": "Purchase Order Item-blanket_order_rate-precision",
   "owner": "Administrator",
   "parent": null,
   "parentfield": null,
   "parenttype": null,
   "property": "precision",
   "property_type": "Select",
   "row_name": null,
   "value": "4"
  },
  {
   "_assign": null,
   "_comments": null,
   "_liked_by": null,
   "_user_tags": null,
   "creation": "2021-11-06 15:15:12.115918",
   "default_value": null,
   "doc_type": "Purchase Order Item",
   "docstatus": 0,
   "doctype_or_field": "DocField",
   "field_name": "base_net_amount",
   "idx": 0,
   "is_system_generated": 1,
   "modified": "2021-10-01 19:03:42.901364",
   "modified_by": "Administrator",
   "module": null,
   "name": "Purchase Order Item-base_net_amount-precision",
   "owner": "Administrator",
   "parent": null,
   "parentfield": null,
   "parenttype": null,
   "property": "precision",
   "property_type": "Select",
   "row_name": null,
   "value": "4"
  },
  {
   "_assign": null,
   "_comments": null,
   "_liked_by": null,
   "_user_tags": null,
   "creation": "2021-11-06 15:15:12.103431",
   "default_value": null,
   "doc_type": "Purchase Order Item",
   "docstatus": 0,
   "doctype_or_field": "DocField",
   "field_name": "base_net_rate",
   "idx": 0,
   "is_system_generated": 1,
   "modified": "2021-10-01 19:03:42.870165",
   "modified_by": "Administrator",
   "module": null,
   "name": "Purchase Order Item-base_net_rate-precision",
   "owner": "Administrator",
   "parent": null,
   "parentfield": null,
   "parenttype": null,
   "property": "precision",
   "property_type": "Select",
   "row_name": null,
   "value": "4"
  },
  {
   "_assign": null,
   "_comments": null,
   "_liked_by": null,
   "_user_tags": null,
   "creation": "2021-11-06 15:15:12.091410",
   "default_value": null,
   "doc_type": "Purchase Order Item",
   "docstatus": 0,
   "doctype_or_field": "DocField",
   "field_name": "net_amount",
   "idx": 0,
   "is_system_generated": 1,
   "modified": "2021-10-01 19:03:42.838640",
   "modified_by": "Administrator",
   "module": null,
   "name": "Purchase Order Item-net_amount-precision",
   "owner": "Administrator",
   "parent": null,
   "parentfield": null,
   "parenttype": null,
   "property": "precision",
   "property_type": "Select",
   "row_name": null,
   "value": "4"
  },
  {
   "_assign": null,
   "_comments": null,
   "_liked_by": null,
   "_user_tags": null,
   "creation": "2021-11-06 15:15:12.079111",
   "default_value": null,
   "doc_type": "Purchase Order Item",
   "docstatus": 0,
   "doctype_or_field": "DocField",
   "field_name": "net_rate",
   "idx": 0,
   "is_system_generated": 1,
   "modified": "2021-10-01 19:03:42.807647",
   "modified_by": "Administrator",
   "module": null,
   "name": "Purchase Order Item-net_rate-precision",
   "owner": "Administrator",
   "parent": null,
   "parentfield": null,
   "parenttype": null,
   "property": "precision",
   "property_type": "Select",
   "row_name": null,
   "value": "4"
  },
  {
   "_assign": null,
   "_comments": null,
   "_liked_by": null,
   "_user_tags": null,
   "creation": "2021-11-06 15:15:12.066738",
   "default_value": null,
   "doc_type": "Purchase Order Item",
   "docstatus": 0,
   "doctype_or_field": "DocField",
   "field_name": "stock_uom_rate",
   "idx": 0,
   "is_system_generated": 1,
   "modified": "2021-10-01 19:03:42.775692",
   "modified_by": "Administrator",
   "module": null,
   "name": "Purchase Order Item-stock_uom_rate-precision",
   "owner": "Administrator",
   "parent": null,
   "parentfield": null,
   "parenttype": null,
   "property": "precision",
   "property_type": "Select",
   "row_name": null,
   "value": "4"
  },
  {
   "_assign": null,
   "_comments": null,
   "_liked_by": null,
   "_user_tags": null,
   "creation": "2021-11-06 15:15:12.054522",
   "default_value": null,
   "doc_type": "Purchase Order Item",
   "docstatus": 0,
   "doctype_or_field": "DocField",
   "field_name": "base_amount",
   "idx": 0,
   "is_system_generated": 1,
   "modified": "2021-10-01 19:03:42.744023",
   "modified_by": "Administrator",
   "module": null,
   "name": "Purchase Order Item-base_amount-precision",
   "owner": "Administrator",
   "parent": null,
   "parentfield": null,
   "parenttype": null,
   "property": "precision",
   "property_type": "Select",
   "row_name": null,
   "value": "4"
  },
  {
   "_assign": null,
   "_comments": null,
   "_liked_by": null,
   "_user_tags": null,
   "creation": "2021-11-06 15:15:12.041935",
   "default_value": null,
   "doc_type": "Purchase Order Item",
   "docstatus": 0,
   "doctype_or_field": "DocField",
   "field_name": "base_rate",
   "idx": 0,
   "is_system_generated": 1,
   "modified": "2021-10-01 19:03:42.712206",
   "modified_by": "Administrator",
   "module": null,
   "name": "Purchase Order Item-base_rate-precision",
   "owner": "Administrator",
   "parent": null,
   "parentfield": null,
   "parenttype": null,
   "property": "precision",
   "property_type": "Select",
   "row_name": null,
   "value": "4"
  },
  {
   "_assign": null,
   "_comments": null,
   "_liked_by": null,
   "_user_tags": null,
   "creation": "2021-11-06 15:15:12.029563",
   "default_value": null,
   "doc_type": "Purchase Order Item",
   "docstatus": 0,
   "doctype_or_field": "DocField",
   "field_name": "amount",
   "idx": 0,
   "is_system_generated": 1,
   "modified": "2021-10-01 19:03:42.680831",
   "modified_by": "Administrator",
   "module": null,
   "name": "Purchase Order Item-amount-precision",
   "owner": "Administrator",
   "parent": null,
   "parentfield": null,
   "parenttype": null,
   "property": "precision",
   "property_type": "Select",
   "row_name": null,
   "value": "4"
  },
  {
   "_assign": null,
   "_comments": null,
   "_liked_by": null,
   "_user_tags": null,
   "creation": "2021-11-06 15:15:12.017005",
   "default_value": null,
   "doc_type": "Purchase Order Item",
   "docstatus": 0,
   "doctype_or_field": "DocField",
   "field_name": "rate",
   "idx": 0,
   "is_system_generated": 1,
   "modified": "2021-10-01 19:03:42.648211",
   "modified_by": "Administrator",
   "module": null,
   "name": "Purchase Order Item-rate-precision",
   "owner": "Administrator",
   "parent": null,
   "parentfield": null,
   "parenttype": null,
   "property": "precision",
   "property_type": "Select",
   "row_name": null,
   "value": "4"
  },
  {
   "_assign": null,
   "_comments": null,
   "_liked_by": null,
   "_user_tags": null,
   "creation": "2021-11-06 15:15:12.004390",
   "default_value": null,
   "doc_type": "Purchase Order Item",
   "docstatus": 0,
   "doctype_or_field": "DocField",
   "field_name": "base_rate_with_margin",
   "idx": 0,
   "is_system_generated": 1,
   "modified": "2021-10-01 19:03:42.610874",
   "modified_by": "Administrator",
   "module": null,
   "name": "Purchase Order Item-base_rate_with_margin-precision",
   "owner": "Administrator",
   "parent": null,
   "parentfield": null,
   "parenttype": null,
   "property": "precision",
   "property_type": "Select",
   "row_name": null,
   "value": "4"
  },
  {
   "_assign": null,
   "_comments": null,
   "_liked_by": null,
   "_user_tags": null,
   "creation": "2021-11-06 15:15:11.990852",
   "default_value": null,
   "doc_type": "Purchase Order Item",
   "docstatus": 0,
   "doctype_or_field": "DocField",
   "field_name": "discount_amount",
   "idx": 0,
   "is_system_generated": 1,
   "modified": "2021-10-01 19:03:42.567365",
   "modified_by": "Administrator",
   "module": null,
   "name": "Purchase Order Item-discount_amount-precision",
   "owner": "Administrator",
   "parent": null,
   "parentfield": null,
   "parenttype": null,
   "property": "precision",
   "property_type": "Select",
   "row_name": null,
   "value": "4"
  },
  {
   "_assign": null,
   "_comments": null,
   "_liked_by": null,
   "_user_tags": null,
   "creation": "2021-11-06 15:15:11.978563",
   "default_value": null,
   "doc_type": "Purchase Order Item",
   "docstatus": 0,
   "doctype_or_field": "DocField",
   "field_name": "rate_with_margin",
   "idx": 0,
   "is_system_generated": 1,
   "modified": "2021-10-01 19:03:42.536787",
   "modified_by": "Administrator",
   "module": null,
   "name": "Purchase Order Item-rate_with_margin-precision",
   "owner": "Administrator",
   "parent": null,
   "parentfield": null,
   "parenttype": null,
   "property": "precision",
   "property_type": "Select",
   "row_name": null,
   "value": "4"
  },
  {
   "_assign": null,
   "_comments": null,
   "_liked_by": null,
   "_user_tags": null,
   "creation": "2021-11-06 15:15:11.966175",
   "default_value": null,
   "doc_type": "Purchase Order Item",
   "docstatus": 0,
   "doctype_or_field": "DocField",
   "field_name": "base_price_list_rate",
   "idx": 0,
   "is_system_generated": 1,
   "modified": "2021-10-01 19:03:42.506027",
   "modified_by": "Administrator",
   "module": null,
   "name": "Purchase Order Item-base_price_list_rate-precision",
   "owner": "Administrator",
   "parent": null,
   "parentfield": null,
   "parenttype": null,
   "property": "precision",
   "property_type": "Select",
   "row_name": null,
   "value": "4"
  },
  {
   "_assign": null,
   "_comments": null,
   "_liked_by": null,
   "_user_tags": null,
   "creation": "2021-11-06 15:15:11.953598",
   "default_value": null,
   "doc_type": "Purchase Order Item",
   "docstatus": 0,
   "doctype_or_field": "DocField",
   "field_name": "last_purchase_rate",
   "idx": 0,
   "is_system_generated": 1,
   "modified": "2021-10-01 19:03:42.474866",
   "modified_by": "Administrator",
   "module": null,
   "name": "Purchase Order Item-last_purchase_rate-precision",
   "owner": "Administrator",
   "parent": null,
   "parentfield": null,
   "parenttype": null,
   "property": "precision",
   "property_type": "Select",
   "row_name": null,
   "value": "4"
  },
  {
   "_assign": null,
   "_comments": null,
   "_liked_by": null,
   "_user_tags": null,
   "creation": "2021-11-06 15:15:11.931598",
   "default_value": null,
   "doc_type": "Purchase Order Item",
   "docstatus": 0,
   "doctype_or_field": "DocField",
   "field_name": "price_list_rate",
   "idx": 0,
   "is_system_generated": 1,
   "modified": "2021-10-01 19:03:42.406186",
   "modified_by": "Administrator",
   "module": null,
   "name": "Purchase Order Item-price_list_rate-precision",
   "owner": "Administrator",
   "parent": null,
   "parentfield": null,
   "parenttype": null,
   "property": "precision",
   "property_type": "Select",
   "row_name": null,
   "value": "4"
  }
 ],
 "sync_on_migrate": 1
}