{
 "custom_fields": [],
 "custom_perms": [],
 "doctype": "Purchase Receipt Item Supplied",
 "links": [],
 "property_setters": [
  {
   "_assign": null,
   "_comments": null,
   "_liked_by": null,
   "_user_tags": null,
   "creation": "2021-11-06 15:15:10.641477",
   "default_value": null,
   "doc_type": "Purchase Receipt Item Supplied",
   "docstatus": 0,
   "doctype_or_field": "DocField",
   "field_name": "amount",
   "idx": 0,
   "is_system_generated": 1,
   "modified": "2021-10-01 18:33:22.675389",
   "modified_by": "Administrator",
   "module": null,
   "name": "Purchase Receipt Item Supplied-amount-precision",
   "owner": "Administrator",
   "parent": null,
   "parentfield": null,
   "parenttype": null,
   "property": "precision",
   "property_type": "Select",
   "row_name": null,
   "value": "4"
  },
  {
   "_assign": null,
   "_comments": null,
   "_liked_by": null,
   "_user_tags": null,
   "creation": "2021-11-06 15:15:10.617993",
   "default_value": null,
   "doc_type": "Purchase Receipt Item Supplied",
   "docstatus": 0,
   "doctype_or_field": "DocField",
   "field_name": "rate",
   "idx": 0,
   "is_system_generated": 1,
   "modified": "2021-10-01 18:33:22.576488",
   "modified_by": "Administrator",
   "module": null,
   "name": "Purchase Receipt Item Supplied-rate-precision",
   "owner": "Administrator",
   "parent": null,
   "parentfield": null,
   "parenttype": null,
   "property": "precision",
   "property_type": "Select",
   "row_name": null,
   "value": "4"
  }
 ],
 "sync_on_migrate": 1
}