{
 "custom_fields": [
  {
   "_assign": null,
   "_comments": null,
   "_liked_by": null,
   "_user_tags": null,
   "allow_in_quick_entry": 1,
   "allow_on_submit": 0,
   "bold": 0,
   "collapsible": 0,
   "collapsible_depends_on": null,
   "columns": 0,
   "creation": "2021-11-06 15:14:04.466859",
   "default": null,
   "depends_on": null,
   "description": null,
   "docstatus": 0,
   "dt": "ToDo",
   "fetch_from": null,
   "fetch_if_empty": 0,
   "fieldname": "time",
   "fieldtype": "Time",
   "hidden": 0,
   "hide_border": 0,
   "hide_days": 0,
   "hide_seconds": 0,
   "idx": 6,
   "ignore_user_permissions": 0,
   "ignore_xss_filter": 0,
   "in_global_search": 0,
   "in_list_view": 1,
   "in_preview": 0,
   "in_standard_filter": 0,
   "insert_after": "date",
   "is_system_generated": 1,
   "is_virtual": 0,
   "label": "Time",
   "length": 0,
   "mandatory_depends_on": null,
   "modified": "2020-09-07 08:50:20.649223",
   "modified_by": "Administrator",
   "module": null,
   "name": "ToDo-time",
   "no_copy": 0,
   "non_negative": 0,
   "options": null,
   "owner": "Administrator",
   "parent": null,
   "parentfield": null,
   "parenttype": null,
   "permlevel": 0,
   "precision": "",
   "print_hide": 0,
   "print_hide_if_no_value": 0,
   "print_width": null,
   "read_only": 0,
   "read_only_depends_on": null,
   "report_hide": 0,
   "reqd": 1,
   "search_index": 0,
   "show_dashboard": 0,
   "sort_options": 0,
   "translatable": 0,
   "unique": 0,
   "width": null
  }
 ],
 "custom_perms": [],
 "doctype": "ToDo",
 "links": [],
 "property_setters": [
  {
   "_assign": null,
   "_comments": null,
   "_liked_by": null,
   "_user_tags": null,
   "creation": "2021-11-06 15:15:06.332323",
   "default_value": null,
   "doc_type": "ToDo",
   "docstatus": 0,
   "doctype_or_field": "DocField",
   "field_name": "date",
   "idx": 0,
   "is_system_generated": 1,
   "modified": "2020-09-07 08:51:33.500550",
   "modified_by": "Administrator",
   "module": null,
   "name": "ToDo-date-allow_in_quick_entry",
   "owner": "Administrator",
   "parent": null,
   "parentfield": null,
   "parenttype": null,
   "property": "allow_in_quick_entry",
   "property_type": "Check",
   "row_name": null,
   "value": "1"
  },
  {
   "_assign": null,
   "_comments": null,
   "_liked_by": null,
   "_user_tags": null,
   "creation": "2021-11-06 15:15:06.321294",
   "default_value": null,
   "doc_type": "ToDo",
   "docstatus": 0,
   "doctype_or_field": "DocField",
   "field_name": "date",
   "idx": 0,
   "is_system_generated": 1,
   "modified": "2020-09-07 08:51:33.352722",
   "modified_by": "Administrator",
   "module": null,
   "name": "ToDo-date-reqd",
   "owner": "Administrator",
   "parent": null,
   "parentfield": null,
   "parenttype": null,
   "property": "reqd",
   "property_type": "Check",
   "row_name": null,
   "value": "1"
  }
 ],
 "sync_on_migrate": 1
}