{
 "based_on": "creation",
 "chart_name": "Groupwise Sales",
 "chart_type": "Sum",
 "creation": "2021-07-04 17:03:15.801364",
 "docstatus": 0,
 "doctype": "Dashboard Chart",
 "document_type": "Item Group",
 "dynamic_filters_json": "[]",
 "filters_json": "[[\"Item Group\",\"parent_item_group\",\"=\",\"All Item Groups\",false]]",
 "group_by_type": "Count",
 "idx": 0,
 "is_public": 0,
 "is_standard": 1,
 "modified": "2021-07-04 17:09:26.499015",
 "modified_by": "sagar@trueview.co.in",
 "module": "Shipping Management",
 "name": "Groupwise Sales",
 "number_of_groups": 0,
 "owner": "sagar@trueview.co.in",
 "source": "",
 "time_interval": "Yearly",
 "timeseries": 1,
 "timespan": "Last Year",
 "type": "Pie",
 "use_report_chart": 0,
 "value_based_on": "",
 "y_axis": []
}