{
 "add_total_row": 0,
 "creation": "2021-01-06 23:04:41.356172",
 "disable_prepared_report": 0,
 "disabled": 0,
 "docstatus": 0,
 "doctype": "Report",
 "idx": 0,
 "is_standard": "Yes",
 "letter_head": "Company Letter Head",
 "modified": "2021-05-19 13:08:57.220241",
 "modified_by": "Administrator",
 "module": "Shipping Management",
 "name": "Sales Order Payment Status",
 "owner": "tailorraj111@gmail.com",
 "prepared_report": 0,
 "query": "select so.transaction_date as \"Transaction Date\",\r\n        so.name as \"Name\",\r\n        so.customer_name as \"Customer Name\",\r\n        so.rounded_total as \"Rounded Total\",\r\n        so.status as \"Status\",\r\n        so.mode_of_payment as \"Mode Of Payment\",\r\n        so.paid_amount as \"Paid Amount\",\r\n        so.payment_remarks as \"Payment Remarks\",\r\n        so.credit_limit as \"Credit Limit:Int:150\",\r\n        CAST(so.outstanding_limit as INT) \"Outstanding Limit:Int:150\",\r\n        CAST(so.overdue_amount as INT) as \"Overdue Amount:Int:150\",\r\n        CAST(so.current_outstanding as INT) as \"Current Outstanding:Int:150\",\r\n        so.approved_by as \"Approved By\",\r\n        so.rejection_reason as \"Approval/Rejection Remark\"\r\nfrom `tabSales Order` as so order by so.transaction_date desc;",
 "ref_doctype": "Sales Order",
 "report_name": "Sales Order Payment Status",
 "report_type": "Query Report",
 "roles": [
  {
   "role": "Maintenance User"
  },
  {
   "role": "Accounts User"
  },
  {
   "role": "Stock User"
  },
  {
   "role": "Sales User"
  },
  {
   "role": "Sales Manager"
  },
  {
   "role": "Stock User Mumabi"
  },
  {
   "role": "Order Processing & Credit Control Manager"
  },
  {
   "role": "Approval Manager"
  },
  {
   "role": "Warehouse Head"
  },
  {
   "role": "Sales Executive"
  },
  {
   "role": "Sales Head"
  },
  {
   "role": "Credit Control"
  },
  {
   "role": "Stock User - Mumbai Warehouse"
  },
  {
   "role": "Invoice Control"
  },
  {
   "role": "RMA Admin"
  },
  {
   "role": "Stock User Mumabi"
  },
  {
   "role": "Order Processing & Credit Control Manager"
  },
  {
   "role": "Approval Manager"
  },
  {
   "role": "Warehouse Head"
  },
  {
   "role": "Sales Executive"
  },
  {
   "role": "Sales Head"
  },
  {
   "role": "Credit Control"
  },
  {
   "role": "Stock User - Mumbai Warehouse"
  },
  {
   "role": "Invoice Control"
  },
  {
   "role": "Sales User"
  },
  {
   "role": "Sales Manager"
  },
  {
   "role": "Maintenance User"
  },
  {
   "role": "Accounts User"
  },
  {
   "role": "Stock User"
  },
  {
   "role": "Stock User Mumabi"
  },
  {
   "role": "Order Processing & Credit Control Manager"
  },
  {
   "role": "Approval Manager"
  },
  {
   "role": "Warehouse Head"
  },
  {
   "role": "Sales Executive"
  },
  {
   "role": "Sales Head"
  },
  {
   "role": "Credit Control"
  },
  {
   "role": "Stock User - Mumbai Warehouse"
  },
  {
   "role": "Invoice Control"
  },
  {
   "role": "Sales User"
  },
  {
   "role": "Sales Manager"
  },
  {
   "role": "Maintenance User"
  },
  {
   "role": "Accounts User"
  },
  {
   "role": "Stock User"
  },
  {
   "role": "RMA Admin"
  }
 ]
}