{
 "add_total_row": 0,
 "columns": [],
 "creation": "2021-07-05 11:54:12.970978",
 "disable_prepared_report": 0,
 "disabled": 0,
 "docstatus": 0,
 "doctype": "Report",
 "filters": [],
 "idx": 0,
 "is_standard": "Yes",
 "letter_head": "Company Letter Head",
 "modified": "2021-07-05 11:54:12.970978",
 "modified_by": "Administrator",
 "module": "Shipping Management",
 "name": "Requested Items To Be Ordered",
 "owner": "Administrator",
 "prepared_report": 0,
 "query": "select \n    mr.name as \"Material Request:Link/Material Request:120\",\n\tmr.transaction_date as \"Date:Date:100\",\n\tmr_item.item_code as \"Item Code:Link/Item:120\",\n\tsum(ifnull(mr_item.stock_qty, 0)) as \"Qty:Float:100\",\n\tifnull(mr_item.stock_uom, '') as \"UOM:Link/UOM:100\",\n\tsum(ifnull(mr_item.ordered_qty, 0)) as \"Ordered Qty:Float:100\", \n\t(sum(mr_item.stock_qty) - sum(ifnull(mr_item.ordered_qty, 0))) as \"Qty to Order:Float:100\",\n\tmr_item.item_name as \"Item Name::150\",\n\tmr_item.description as \"Description::200\",\n\tmr.company as \"Company:Link/Company:\"\nfrom\n\t`tabMaterial Request` mr, `tabMaterial Request Item` mr_item\nwhere\n\tmr_item.parent = mr.name\n\tand mr.material_request_type = \"Purchase\"\n\tand mr.docstatus = 1\n\tand mr.status != \"Stopped\"\ngroup by mr.name, mr_item.item_code\nhaving\n\tsum(ifnull(mr_item.ordered_qty, 0)) < sum(ifnull(mr_item.stock_qty, 0))\norder by mr.transaction_date asc",
 "ref_doctype": "Purchase Order",
 "report_name": "Requested Items To Be Ordered",
 "report_type": "Query Report",
 "roles": [
  {
   "role": "Credit Control"
  },
  {
   "role": "Purchase Head"
  },
  {
   "role": "Accounts Head"
  },
  {
   "role": "Store Manager"
  },
  {
   "role": "Accounts Manager"
  },
  {
   "role": "Credit Control"
  },
  {
   "role": "Purchase Head"
  },
  {
   "role": "Accounts Head"
  },
  {
   "role": "Store Manager"
  },
  {
   "role": "Stock User"
  },
  {
   "role": "Purchase Manager"
  },
  {
   "role": "Purchase User"
  },
  {
   "role": "Credit Control"
  },
  {
   "role": "Purchase Head"
  },
  {
   "role": "Accounts Head"
  },
  {
   "role": "Store Manager"
  },
  {
   "role": "Stock User"
  },
  {
   "role": "Purchase Manager"
  },
  {
   "role": "Purchase User"
  },
  {
   "role": "Warehouse Head"
  },
  {
   "role": "Stock User"
  },
  {
   "role": "Purchase Manager"
  },
  {
   "role": "Purchase User"
  },
  {
   "role": "Credit Control"
  },
  {
   "role": "Purchase Head"
  },
  {
   "role": "Accounts Head"
  },
  {
   "role": "Store Manager"
  },
  {
   "role": "Accounts Manager"
  },
  {
   "role": "Credit Control"
  },
  {
   "role": "Purchase Head"
  },
  {
   "role": "Accounts Head"
  },
  {
   "role": "Store Manager"
  },
  {
   "role": "Stock User"
  },
  {
   "role": "Purchase Manager"
  },
  {
   "role": "Purchase User"
  },
  {
   "role": "Credit Control"
  },
  {
   "role": "Purchase Head"
  },
  {
   "role": "Accounts Head"
  },
  {
   "role": "Store Manager"
  },
  {
   "role": "Stock User"
  },
  {
   "role": "Purchase Manager"
  },
  {
   "role": "Purchase User"
  },
  {
   "role": "Warehouse Head"
  },
  {
   "role": "Stock User"
  },
  {
   "role": "Purchase Manager"
  },
  {
   "role": "Purchase User"
  },
  {
   "role": "Credit Control"
  },
  {
   "role": "Purchase Head"
  },
  {
   "role": "Accounts Head"
  },
  {
   "role": "Store Manager"
  },
  {
   "role": "Accounts Manager"
  },
  {
   "role": "Credit Control"
  },
  {
   "role": "Purchase Head"
  },
  {
   "role": "Accounts Head"
  },
  {
   "role": "Store Manager"
  },
  {
   "role": "Stock User"
  },
  {
   "role": "Purchase Manager"
  },
  {
   "role": "Purchase User"
  },
  {
   "role": "Credit Control"
  },
  {
   "role": "Purchase Head"
  },
  {
   "role": "Accounts Head"
  },
  {
   "role": "Store Manager"
  },
  {
   "role": "Stock User"
  },
  {
   "role": "Purchase Manager"
  },
  {
   "role": "Purchase User"
  },
  {
   "role": "Warehouse Head"
  },
  {
   "role": "Stock User"
  },
  {
   "role": "Purchase Manager"
  },
  {
   "role": "Purchase User"
  },
  {
   "role": "Credit Control"
  },
  {
   "role": "Purchase Head"
  },
  {
   "role": "Accounts Head"
  },
  {
   "role": "Store Manager"
  },
  {
   "role": "Accounts Manager"
  },
  {
   "role": "Credit Control"
  },
  {
   "role": "Purchase Head"
  },
  {
   "role": "Accounts Head"
  },
  {
   "role": "Store Manager"
  },
  {
   "role": "Stock User"
  },
  {
   "role": "Purchase Manager"
  },
  {
   "role": "Purchase User"
  },
  {
   "role": "Credit Control"
  },
  {
   "role": "Purchase Head"
  },
  {
   "role": "Accounts Head"
  },
  {
   "role": "Store Manager"
  },
  {
   "role": "Stock User"
  },
  {
   "role": "Purchase Manager"
  },
  {
   "role": "Purchase User"
  },
  {
   "role": "Warehouse Head"
  },
  {
   "role": "Stock User"
  },
  {
   "role": "Purchase Manager"
  },
  {
   "role": "Purchase User"
  },
  {
   "role": "Credit Control"
  },
  {
   "role": "Purchase Head"
  },
  {
   "role": "Accounts Head"
  },
  {
   "role": "Store Manager"
  },
  {
   "role": "Accounts Manager"
  },
  {
   "role": "Credit Control"
  },
  {
   "role": "Purchase Head"
  },
  {
   "role": "Accounts Head"
  },
  {
   "role": "Store Manager"
  },
  {
   "role": "Stock User"
  },
  {
   "role": "Purchase Manager"
  },
  {
   "role": "Purchase User"
  },
  {
   "role": "Credit Control"
  },
  {
   "role": "Purchase Head"
  },
  {
   "role": "Accounts Head"
  },
  {
   "role": "Store Manager"
  },
  {
   "role": "Stock User"
  },
  {
   "role": "Purchase Manager"
  },
  {
   "role": "Purchase User"
  },
  {
   "role": "Warehouse Head"
  },
  {
   "role": "Stock User"
  },
  {
   "role": "Purchase Manager"
  },
  {
   "role": "Purchase User"
  },
  {
   "role": "Credit Control"
  },
  {
   "role": "Purchase Head"
  },
  {
   "role": "Accounts Head"
  },
  {
   "role": "Store Manager"
  },
  {
   "role": "Accounts Manager"
  },
  {
   "role": "Credit Control"
  },
  {
   "role": "Purchase Head"
  },
  {
   "role": "Accounts Head"
  },
  {
   "role": "Store Manager"
  },
  {
   "role": "Stock User"
  },
  {
   "role": "Purchase Manager"
  },
  {
   "role": "Purchase User"
  },
  {
   "role": "Credit Control"
  },
  {
   "role": "Purchase Head"
  },
  {
   "role": "Accounts Head"
  },
  {
   "role": "Store Manager"
  },
  {
   "role": "Stock User"
  },
  {
   "role": "Purchase Manager"
  },
  {
   "role": "Purchase User"
  },
  {
   "role": "Warehouse Head"
  },
  {
   "role": "Stock User"
  },
  {
   "role": "Purchase Manager"
  },
  {
   "role": "Purchase User"
  },
  {
   "role": "Credit Control"
  },
  {
   "role": "Purchase Head"
  },
  {
   "role": "Accounts Head"
  },
  {
   "role": "Store Manager"
  },
  {
   "role": "Accounts Manager"
  },
  {
   "role": "Credit Control"
  },
  {
   "role": "Purchase Head"
  },
  {
   "role": "Accounts Head"
  },
  {
   "role": "Store Manager"
  },
  {
   "role": "Stock User"
  },
  {
   "role": "Purchase Manager"
  },
  {
   "role": "Purchase User"
  },
  {
   "role": "Credit Control"
  },
  {
   "role": "Purchase Head"
  },
  {
   "role": "Accounts Head"
  },
  {
   "role": "Store Manager"
  },
  {
   "role": "Stock User"
  },
  {
   "role": "Purchase Manager"
  },
  {
   "role": "Purchase User"
  },
  {
   "role": "Warehouse Head"
  },
  {
   "role": "Stock User"
  },
  {
   "role": "Purchase Manager"
  },
  {
   "role": "Purchase User"
  },
  {
   "role": "Credit Control"
  },
  {
   "role": "Purchase Head"
  },
  {
   "role": "Accounts Head"
  },
  {
   "role": "Store Manager"
  },
  {
   "role": "Accounts Manager"
  },
  {
   "role": "Credit Control"
  },
  {
   "role": "Purchase Head"
  },
  {
   "role": "Accounts Head"
  },
  {
   "role": "Store Manager"
  },
  {
   "role": "Stock User"
  },
  {
   "role": "Purchase Manager"
  },
  {
   "role": "Purchase User"
  },
  {
   "role": "Credit Control"
  },
  {
   "role": "Purchase Head"
  },
  {
   "role": "Accounts Head"
  },
  {
   "role": "Store Manager"
  },
  {
   "role": "Stock User"
  },
  {
   "role": "Purchase Manager"
  },
  {
   "role": "Purchase User"
  },
  {
   "role": "Warehouse Head"
  },
  {
   "role": "Stock User"
  },
  {
   "role": "Purchase Manager"
  },
  {
   "role": "Purchase User"
  },
  {
   "role": "Credit Control"
  },
  {
   "role": "Purchase Head"
  },
  {
   "role": "Accounts Head"
  },
  {
   "role": "Store Manager"
  },
  {
   "role": "Accounts Manager"
  },
  {
   "role": "Credit Control"
  },
  {
   "role": "Purchase Head"
  },
  {
   "role": "Accounts Head"
  },
  {
   "role": "Store Manager"
  },
  {
   "role": "Stock User"
  },
  {
   "role": "Purchase Manager"
  },
  {
   "role": "Purchase User"
  },
  {
   "role": "Credit Control"
  },
  {
   "role": "Purchase Head"
  },
  {
   "role": "Accounts Head"
  },
  {
   "role": "Store Manager"
  },
  {
   "role": "Stock User"
  },
  {
   "role": "Purchase Manager"
  },
  {
   "role": "Purchase User"
  },
  {
   "role": "Warehouse Head"
  },
  {
   "role": "Stock User"
  },
  {
   "role": "Purchase Manager"
  },
  {
   "role": "Purchase User"
  },
  {
   "role": "Credit Control"
  },
  {
   "role": "Purchase Head"
  },
  {
   "role": "Accounts Head"
  },
  {
   "role": "Store Manager"
  },
  {
   "role": "Accounts Manager"
  },
  {
   "role": "Credit Control"
  },
  {
   "role": "Purchase Head"
  },
  {
   "role": "Accounts Head"
  },
  {
   "role": "Store Manager"
  },
  {
   "role": "Stock User"
  },
  {
   "role": "Purchase Manager"
  },
  {
   "role": "Purchase User"
  },
  {
   "role": "Credit Control"
  },
  {
   "role": "Purchase Head"
  },
  {
   "role": "Accounts Head"
  },
  {
   "role": "Store Manager"
  },
  {
   "role": "Stock User"
  },
  {
   "role": "Purchase Manager"
  },
  {
   "role": "Purchase User"
  },
  {
   "role": "Warehouse Head"
  },
  {
   "role": "Stock User"
  },
  {
   "role": "Purchase Manager"
  },
  {
   "role": "Purchase User"
  },
  {
   "role": "Credit Control"
  },
  {
   "role": "Purchase Head"
  },
  {
   "role": "Accounts Head"
  },
  {
   "role": "Store Manager"
  },
  {
   "role": "Accounts Manager"
  },
  {
   "role": "Credit Control"
  },
  {
   "role": "Purchase Head"
  },
  {
   "role": "Accounts Head"
  },
  {
   "role": "Store Manager"
  },
  {
   "role": "Stock User"
  },
  {
   "role": "Purchase Manager"
  },
  {
   "role": "Purchase User"
  },
  {
   "role": "Credit Control"
  },
  {
   "role": "Purchase Head"
  },
  {
   "role": "Accounts Head"
  },
  {
   "role": "Store Manager"
  },
  {
   "role": "Stock User"
  },
  {
   "role": "Purchase Manager"
  },
  {
   "role": "Purchase User"
  },
  {
   "role": "Warehouse Head"
  },
  {
   "role": "Stock User"
  },
  {
   "role": "Purchase Manager"
  },
  {
   "role": "Purchase User"
  },
  {
   "role": "Credit Control"
  },
  {
   "role": "Purchase Head"
  },
  {
   "role": "Accounts Head"
  },
  {
   "role": "Store Manager"
  },
  {
   "role": "Accounts Manager"
  },
  {
   "role": "Credit Control"
  },
  {
   "role": "Purchase Head"
  },
  {
   "role": "Accounts Head"
  },
  {
   "role": "Store Manager"
  },
  {
   "role": "Stock User"
  },
  {
   "role": "Purchase Manager"
  },
  {
   "role": "Purchase User"
  },
  {
   "role": "Credit Control"
  },
  {
   "role": "Purchase Head"
  },
  {
   "role": "Accounts Head"
  },
  {
   "role": "Store Manager"
  },
  {
   "role": "Stock User"
  },
  {
   "role": "Purchase Manager"
  },
  {
   "role": "Purchase User"
  },
  {
   "role": "Warehouse Head"
  },
  {
   "role": "Stock User"
  },
  {
   "role": "Purchase Manager"
  },
  {
   "role": "Purchase User"
  },
  {
   "role": "Credit Control"
  },
  {
   "role": "Purchase Head"
  },
  {
   "role": "Accounts Head"
  },
  {
   "role": "Store Manager"
  },
  {
   "role": "Accounts Manager"
  },
  {
   "role": "Credit Control"
  },
  {
   "role": "Purchase Head"
  },
  {
   "role": "Accounts Head"
  },
  {
   "role": "Store Manager"
  },
  {
   "role": "Stock User"
  },
  {
   "role": "Purchase Manager"
  },
  {
   "role": "Purchase User"
  },
  {
   "role": "Credit Control"
  },
  {
   "role": "Purchase Head"
  },
  {
   "role": "Accounts Head"
  },
  {
   "role": "Store Manager"
  },
  {
   "role": "Stock User"
  },
  {
   "role": "Purchase Manager"
  },
  {
   "role": "Purchase User"
  },
  {
   "role": "Warehouse Head"
  },
  {
   "role": "Stock User"
  },
  {
   "role": "Purchase Manager"
  },
  {
   "role": "Purchase User"
  },
  {
   "role": "Credit Control"
  },
  {
   "role": "Purchase Head"
  },
  {
   "role": "Accounts Head"
  },
  {
   "role": "Store Manager"
  },
  {
   "role": "Accounts Manager"
  },
  {
   "role": "Credit Control"
  },
  {
   "role": "Purchase Head"
  },
  {
   "role": "Accounts Head"
  },
  {
   "role": "Store Manager"
  },
  {
   "role": "Stock User"
  },
  {
   "role": "Purchase Manager"
  },
  {
   "role": "Purchase User"
  },
  {
   "role": "Credit Control"
  },
  {
   "role": "Purchase Head"
  },
  {
   "role": "Accounts Head"
  },
  {
   "role": "Store Manager"
  },
  {
   "role": "Stock User"
  },
  {
   "role": "Purchase Manager"
  },
  {
   "role": "Purchase User"
  },
  {
   "role": "Warehouse Head"
  },
  {
   "role": "Stock User"
  },
  {
   "role": "Purchase Manager"
  },
  {
   "role": "Purchase User"
  },
  {
   "role": "Credit Control"
  },
  {
   "role": "Purchase Head"
  },
  {
   "role": "Accounts Head"
  },
  {
   "role": "Store Manager"
  },
  {
   "role": "Accounts Manager"
  },
  {
   "role": "Credit Control"
  },
  {
   "role": "Purchase Head"
  },
  {
   "role": "Accounts Head"
  },
  {
   "role": "Store Manager"
  },
  {
   "role": "Stock User"
  },
  {
   "role": "Purchase Manager"
  },
  {
   "role": "Purchase User"
  },
  {
   "role": "Credit Control"
  },
  {
   "role": "Purchase Head"
  },
  {
   "role": "Accounts Head"
  },
  {
   "role": "Store Manager"
  },
  {
   "role": "Stock User"
  },
  {
   "role": "Purchase Manager"
  },
  {
   "role": "Purchase User"
  },
  {
   "role": "Warehouse Head"
  },
  {
   "role": "Stock User"
  },
  {
   "role": "Purchase Manager"
  },
  {
   "role": "Purchase User"
  },
  {
   "role": "Credit Control"
  },
  {
   "role": "Purchase Head"
  },
  {
   "role": "Accounts Head"
  },
  {
   "role": "Store Manager"
  },
  {
   "role": "Accounts Manager"
  },
  {
   "role": "Credit Control"
  },
  {
   "role": "Purchase Head"
  },
  {
   "role": "Accounts Head"
  },
  {
   "role": "Store Manager"
  },
  {
   "role": "Stock User"
  },
  {
   "role": "Purchase Manager"
  },
  {
   "role": "Purchase User"
  },
  {
   "role": "Credit Control"
  },
  {
   "role": "Purchase Head"
  },
  {
   "role": "Accounts Head"
  },
  {
   "role": "Store Manager"
  },
  {
   "role": "Stock User"
  },
  {
   "role": "Purchase Manager"
  },
  {
   "role": "Purchase User"
  },
  {
   "role": "Warehouse Head"
  },
  {
   "role": "Stock User"
  },
  {
   "role": "Purchase Manager"
  },
  {
   "role": "Purchase User"
  },
  {
   "role": "Auditor"
  }
 ]
}